<?xml version="1.0" standalone="no"?>
<!DOCTYPE svg PUBLIC "-//W3C//DTD SVG 1.1//EN" "http://www.w3.org/Graphics/SVG/1.1/DTD/svg11.dtd" >
<!--
2019-5-16: Created with FontForge (http://fontforge.org)
-->
<svg xmlns="http://www.w3.org/2000/svg" xmlns:xlink="http://www.w3.org/1999/xlink" version="1.1">
<metadata>
Created by FontForge 20170731 at Thu May 16 15:41:18 2019
 By root

</metadata>
<defs>
<font id="Flaticon" horiz-adv-x="512" >
  <font-face 
    font-family="Flaticon"
    font-weight="400"
    font-stretch="normal"
    units-per-em="512"
    panose-1="2 0 5 3 0 0 0 0 0 0"
    ascent="448"
    descent="-64"
    bbox="-0.0008146 -64.0016 512.001 448"
    underline-thickness="25.6"
    underline-position="-51.2"
    unicode-range="U+0020-F10A"
  />
    <missing-glyph />
    <glyph glyph-name="space" unicode=" " horiz-adv-x="200" 
 />
    <glyph glyph-name="008-refresh-button" unicode="&#xf107;" 
d="M256 378.182c102.4 0 186.182 -83.7812 186.182 -186.182c0 -37.2363 -11.6357 -69.8184 -27.9268 -100.072l-34.9092 34.9082c9.30859 18.6182 16.291 41.8916 16.291 65.1641c0 76.7998 -62.8369 139.637 -139.637 139.637v-69.8184l-93.0908 93.0908l93.0908 93.0908
v-69.8184zM256 52.3633v69.8184l93.0908 -93.0908l-93.0908 -93.0908v69.8184c-102.4 0 -186.182 83.7812 -186.182 186.182c0 37.2363 11.6357 69.8184 27.9268 100.072l34.9092 -34.9082c-9.30859 -18.6182 -16.291 -41.8916 -16.291 -65.1641
c0 -76.7998 62.8369 -139.637 139.637 -139.637z" />
    <glyph glyph-name="001-zoom-in" unicode="&#xf100;" 
d="M280.166 254.668c5.33594 0 9.66699 -4.33008 9.66699 -9.66602s-4.33105 -9.66699 -9.66699 -9.66699h-57.999v-57.999c0 -5.33594 -4.33105 -9.66699 -9.66699 -9.66699s-9.66602 4.33105 -9.66602 9.66699v57.999h-58c-5.33594 0 -9.66602 4.33105 -9.66602 9.66699
s4.33008 9.66602 9.66602 9.66602h58v58c0 5.33594 4.33008 9.66699 9.66602 9.66699s9.66699 -4.33105 9.66699 -9.66699v-58h57.999zM499.801 -47.6348c3.69238 -3.84668 3.57617 -9.96582 -0.270508 -13.668c-1.875 -1.79785 -4.28223 -2.69727 -6.69922 -2.69727
c-2.54199 0 -5.0752 0.986328 -6.96973 2.96777l-143.983 149.745c-35.1475 -29.1445 -80.2422 -46.709 -129.378 -46.709c-111.938 0 -202.998 91.0586 -202.998 202.998c0 111.938 91.0596 202.998 202.998 202.998c111.939 0 202.999 -91.0596 202.999 -202.998
c0 -55.8633 -22.6973 -106.517 -59.334 -143.259zM28.835 245.002c0 -101.276 82.3887 -183.665 183.665 -183.665c101.277 0 183.665 82.3887 183.665 183.665s-82.3877 183.665 -183.665 183.665c-101.276 0 -183.665 -82.3887 -183.665 -183.665z" />
    <glyph glyph-name="006-sort-down" unicode="&#xf105;" 
d="M502.496 326.503c6.32715 -6.34082 9.50391 -13.8379 9.50391 -22.5029c0 -8.66699 -3.17676 -16.1641 -9.50391 -22.499l-223.998 -223.999c-6.3291 -6.33398 -13.833 -9.50586 -22.498 -9.50586s-16.1621 3.17188 -22.5039 9.50586l-223.997 223.998
c-6.33496 6.33594 -9.49902 13.833 -9.49902 22.498c0 8.66699 3.16406 16.1641 9.49902 22.5049c6.33398 6.33496 13.8311 9.49902 22.5029 9.49902h447.994c8.66797 0 16.1709 -3.16406 22.5 -9.49902z" />
    <glyph glyph-name="009-pencil" unicode="&#xf108;" 
d="M307.437 340.661l97.166 -97.2646c13.415 -13.4307 13.415 -35.2041 0 -48.6328l-12.1445 -12.1582l0.00195312 -0.000976562l-170.038 -170.214l-0.367188 0.368164l-5.48535 -5.49902s-0.0517578 -0.0458984 -0.125977 -0.114258
c-0.00976562 -0.00976562 -0.00976562 -0.00976562 -0.0234375 -0.0185547c-1.76758 -1.58398 -23.04 -18.8994 -141.534 -55.7949c-0.693359 -0.21582 -1.37988 -0.430664 -2.0791 -0.647461c-2.34277 -0.728516 -4.72656 -1.46191 -7.14453 -2.20508
c-1.91504 -0.588867 -3.87012 -1.18262 -5.83398 -1.78125c-1.82715 -0.556641 -3.63867 -1.10938 -5.50781 -1.67285c-4.04688 -1.22168 -8.16797 -2.45801 -12.4209 -3.71875c-9.37988 -2.78223 -30.8145 -9.28906 -38.1875 -1.89258
c-7.6582 7.67871 -0.886719 28.8906 1.88574 38.2969c1.26367 4.28516 2.50195 8.43457 3.72461 12.5117c0.539062 1.79688 1.06738 3.53613 1.59863 5.29492c0.630859 2.08594 1.25977 4.15918 1.88086 6.19043c0.701172 2.29785 1.39648 4.56445 2.08398 6.7959
c0.272461 0.881836 0.541016 1.74707 0.811523 2.61816c38.5791 124.543 55.665 141.752 55.665 141.752l5.3584 5.37305l-0.0439453 0.0439453l170.034 170.213l12.1445 12.1572c13.4131 13.4307 35.166 13.4307 48.5811 0zM197.006 29.251l4.28223 4.2959l-103.81 103.919
l-4.19141 -4.20312c-0.101562 -0.150391 -0.232422 -0.352539 -0.368164 -0.564453c-0.0722656 -0.112305 -0.158203 -0.249023 -0.240234 -0.380859c-0.102539 -0.165039 -0.212891 -0.34668 -0.331055 -0.541016
c-0.0742188 -0.12207 -0.148438 -0.246094 -0.230469 -0.380859c-3.36719 -5.64941 -12.0947 -22.2998 -26.6475 -62.7588c-1.70898 -4.74414 -3.51758 -9.90918 -5.38477 -15.3203l57.2734 -57.332c5.37109 1.86133 10.498 3.66797 15.2061 5.37109
c40.2891 14.585 56.8906 23.3203 62.5469 26.7061c0.164062 0.0996094 0.316406 0.19043 0.462891 0.280273c0.166016 0.101562 0.322266 0.198242 0.464844 0.288086c0.141602 0.0878906 0.28418 0.176758 0.402344 0.25293
c0.213867 0.135742 0.415039 0.266602 0.564453 0.368164zM501.761 340.661c13.415 -13.4277 13.415 -35.2021 0 -48.6318l-24.29 -24.3154c-13.415 -13.4287 -35.168 -13.4287 -48.5811 0l-97.1631 97.2646c-13.415 13.4287 -13.415 35.2021 0 48.6309l24.2891 24.3174
c13.417 13.4287 35.166 13.4287 48.5811 0z" />
    <glyph glyph-name="003-photo-camera" unicode="&#xf102;" 
d="M452.82 -10.2646h-393.65c-32.6318 0 -59.1699 26.5381 -59.1699 59.1699v239.967c0 32.6318 26.5381 59.1699 59.1699 59.1699h80.3252l7.03027 23.7188c2.86914 12.9785 14.7344 22.5039 28.6885 22.5039h161.574c13.5596 0 25.5605 -9.47656 28.7373 -22.6221
l0.186523 -0.808594l6.41016 -22.79h80.708c32.6318 0 59.1699 -26.5391 59.1699 -59.1709v-239.965c-0.00878906 -32.6348 -26.5566 -59.1729 -59.1797 -59.1729zM59.1699 328.318c-21.7549 0 -39.4463 -17.6924 -39.4463 -39.4463v-239.965
c0 -21.7559 17.6924 -39.4463 39.4463 -39.4463h393.65c21.7559 0 39.4463 17.6924 39.4463 39.4463v239.965c0 21.7559 -17.6924 39.4463 -39.4463 39.4463h-95.6377l-10.7988 38.5107c-0.995117 4.47754 -5.0293 7.7207 -9.60547 7.7207h-161.575
c-4.64453 0 -8.58984 -3.1748 -9.60547 -7.73145l-11.3994 -38.5h-95.0283zM256.011 49.3506c-69.0215 0 -125.175 56.1426 -125.175 125.155c0 69.0215 56.1514 125.164 125.175 125.164c69.0029 0 125.146 -56.1523 125.146 -125.164
c-0.000976562 -69.0029 -56.1436 -125.155 -125.146 -125.155zM256.011 279.957c-58.1455 0 -105.451 -47.2969 -105.451 -105.442s47.3076 -105.431 105.451 -105.431c58.1348 0 105.422 47.2959 105.422 105.431c-0.000976562 58.1455 -47.2979 105.442 -105.422 105.442z
M440.089 291.712c10.0391 0 18.1758 -8.15527 18.1855 -18.1953c0 -10.0479 -8.13574 -18.1943 -18.1855 -18.1943c-10.0596 0 -18.1953 8.14551 -18.1953 18.1943c0 10.04 8.13672 18.1953 18.1953 18.1953z" />
    <glyph glyph-name="005-shopping-cart" unicode="&#xf104;" 
d="M214.686 45.1709c24.8281 0 45.0283 -20.2002 45.0293 -45.0283c0 -24.8291 -20.2002 -45.0293 -45.0293 -45.0293s-45.0293 20.2002 -45.0293 45.0293c0 24.8281 20.2002 45.0283 45.0293 45.0283zM214.686 -19.7432c10.9648 0 19.8867 8.91992 19.8867 19.8877
c0 10.9648 -8.92188 19.8867 -19.8867 19.8867s-19.8867 -8.9209 -19.8867 -19.8867s8.9209 -19.8877 19.8867 -19.8877zM372.631 45.1709c24.8281 0 45.0283 -20.2002 45.0293 -45.0283c0 -24.8291 -20.2002 -45.0293 -45.0293 -45.0293s-45.0293 20.2002 -45.0293 45.0293
c0 24.8281 20.2002 45.0283 45.0293 45.0283zM372.631 -19.7432c10.9648 0 19.8867 8.91992 19.8867 19.8877c0 10.9648 -8.9209 19.8867 -19.8867 19.8867c-10.9648 0 -19.8867 -8.9209 -19.8867 -19.8867s8.9209 -19.8877 19.8867 -19.8877zM383.717 282.245
c6.94336 0 12.5713 -5.62793 12.5713 -12.5713s-5.62793 -12.5713 -12.5713 -12.5713h-180.149c-6.94238 0 -12.5713 5.62793 -12.5713 12.5713c0 6.94238 5.62793 12.5713 12.5713 12.5713h180.149zM373.912 216.965c6.94141 0 12.5693 -5.62891 12.5693 -12.5713
c0 -6.94336 -5.62793 -12.5713 -12.5703 -12.5713h-160.538c-6.94238 0 -12.5703 5.62793 -12.5703 12.5713s5.62793 12.5713 12.5703 12.5713h160.539zM506.342 338.256c4.79492 -5.88281 6.66699 -13.5225 5.13574 -20.9541l-35.1631 -170.676
c-2.39453 -11.6279 -12.752 -20.0674 -24.624 -20.0674h-310.893l7.39941 -35.916h301.166c6.94238 0 12.5703 -5.62793 12.5703 -12.5713s-5.62793 -12.5713 -12.5703 -12.5713h-301.167c-11.873 0 -22.2295 8.44043 -24.625 20.0684l-60.8262 295.262l-55.1777 23.9512
c-6.36719 2.7627 -9.29004 10.167 -6.52441 16.5371c2.7627 6.36719 10.166 9.29102 16.5361 6.52344l55.1768 -23.9502c7.50098 -3.25684 12.9629 -9.98047 14.6143 -17.9883l7.9082 -38.3896h391.574c7.5918 0 14.6953 -3.37402 19.4893 -9.25781zM451.69 151.698
l35.1611 170.674l-386.394 0.000976562l35.1611 -170.675h316.071z" />
    <glyph glyph-name="002-home" unicode="&#xf101;" 
d="M506.555 239.936c5.92871 -4.34082 7.2168 -12.6641 2.87402 -18.5918c-2.60547 -3.55957 -6.64746 -5.44434 -10.7441 -5.44434c-2.72754 0 -5.47949 0.834961 -7.84766 2.56934l-234.837 171.943l-234.837 -171.944c-5.92676 -4.33887 -14.252 -3.05273 -18.5928 2.875
c-4.3418 5.92871 -3.05371 14.252 2.875 18.5928l242.697 177.697c4.67871 3.42578 11.0361 3.42578 15.7168 0zM442.246 215.457c7.34668 0 13.3027 -5.95605 13.3037 -13.3037v-225.054c0 -7.34668 -5.95605 -13.3027 -13.3027 -13.3027h-133.029
c-7 0 -12.7266 5.41211 -13.251 12.2793c-0.0322266 0.306641 -0.0517578 0.640625 -0.0517578 1.02344v128.891c0 22.0078 -17.9053 39.9141 -39.9141 39.9141s-39.9141 -17.9053 -39.9141 -39.9141v-128.891c0 -0.384766 -0.0195312 -0.724609 -0.0517578 -1.03516
c-0.530273 -6.8623 -6.25488 -12.2676 -13.251 -12.2676h-133.029c-7.3457 0 -13.3027 5.95605 -13.3027 13.3027v225.054c0 7.34668 5.95703 13.3027 13.3027 13.3027s13.3027 -5.95605 13.3027 -13.3027v-211.749h106.424v115.587
c0 36.6777 29.8418 66.5195 66.5195 66.5195s66.5205 -29.8398 66.5205 -66.5195v-115.586h106.422v211.749c0 7.34668 5.95703 13.3027 13.3027 13.3027z" />
    <glyph glyph-name="010-right-arrow" unicode="&#xf109;" 
d="M344.774 366.591l161.812 -161.827c7.21875 -6.95898 7.21875 -18.5684 0 -25.543l-161.812 -161.812c-6.95801 -7.21875 -18.584 -7.21875 -25.8027 0c-6.97559 6.95898 -6.97559 18.584 0 25.8037l130.837 130.593h-431.745
c-10.0645 0 -18.0635 8.25977 -18.0635 18.3242s7.99902 18.0645 18.0635 18.0801h431.745l-130.837 130.838c-6.97559 6.95898 -6.97559 18.5674 0 25.543c7.21875 7.21875 18.8281 7.21875 25.8027 0z" />
    <glyph glyph-name="004-users" unicode="&#xf103;" 
d="M469.453 60.6807c26.2393 -13.124 42.5469 -39.5098 42.5469 -68.8467v-34.501h-375.467h-17.0664h-119.467v32.4014c0 24.7637 13.5078 47.5225 35.251 59.3838l56.7725 35.6094c6.33984 3.46484 9.99219 9.62598 9.99219 16.3408v23.4072
c-6.74121 7.04004 -24.0547 27.0938 -31.0947 53.6318c-7.06641 5.80273 -11.1875 14.3877 -11.1875 23.5947v29.4746c0 6.90332 3.00391 13.8574 8.5332 19.8828v39.0742c0.0507812 1.2373 5.21387 76.7998 93.8672 76.7998c19.5752 0 36.8125 -3.83203 51.4385 -11.3926
c1.24609 11.2988 5.36719 27.0342 17.6133 41.0029c17.5273 19.9854 45.9688 30.123 84.5479 30.123s67.0205 -10.1377 84.5479 -30.1318c20.207 -23.0479 18.3301 -50.9863 17.8525 -55.6797v-45.3887c5.46094 -6.2207 8.5332 -14.1826 8.5332 -22.4004v-34.1328
c0 -13.4404 -7.81641 -25.3447 -19.8574 -30.8652c-6.16113 -17.9287 -14.6348 -34.5518 -25.207 -49.4854c-2.125 -3.00293 -4.18164 -5.72559 -6.13574 -8.11426v-28.8516c0 -8.60156 4.77832 -16.333 12.4668 -20.1816zM119.467 -6.50195
c0 28.1934 15.3682 54.084 40.1152 67.6006l48.0088 26.1885l1.60352 3.37109l3.93457 -0.349609l22.5791 12.3135c7.24414 3.95898 11.75 11.5371 11.75 19.7969v28.2373c-0.162109 0.22168 -0.417969 0.580078 -0.605469 0.827148
c-0.333008 0.452148 -0.674805 0.913086 -1.06738 1.45117c-1.48438 2.02246 -3.27637 4.61621 -5.3418 7.81641c-0.238281 0.367188 -0.477539 0.767578 -0.724609 1.15234c-1.13574 1.79199 -2.30469 3.71973 -3.5332 5.81934
c-0.435547 0.742188 -0.870117 1.51074 -1.31445 2.2959c-0.904297 1.60352 -1.80859 3.25977 -2.73047 5.01758c-0.537109 1.02344 -1.0752 2.03027 -1.6123 3.09766c-0.136719 0.272461 -0.264648 0.571289 -0.401367 0.844727
c-0.853516 1.70605 -1.67285 3.47266 -2.50879 5.29883c-0.22168 0.486328 -0.452148 0.929688 -0.673828 1.4248l-0.478516 1.0752c-0.178711 0.401367 -0.332031 0.844727 -0.511719 1.25488c-0.733398 1.70605 -1.43359 3.42969 -2.13379 5.21387
c-0.272461 0.691406 -0.5625 1.32227 -0.827148 2.02246c-0.623047 1.68066 -1.16016 3.22559 -1.67285 4.71875c-0.306641 0.904297 -0.59668 1.81738 -0.895508 2.73926c-0.12793 0.392578 -0.273438 0.792969 -0.392578 1.18555l-0.691406 2.22754
c-0.580078 1.90332 -1.11816 3.84863 -1.62988 5.80273c-0.0429688 0.15332 -0.09375 0.298828 -0.136719 0.460938c-4.01074 3.2168 -7.19336 7.24512 -9.37793 11.75c-0.00878906 0.0175781 -0.0166016 0.0263672 -0.0253906 0.0429688
c-0.657227 1.35645 -1.0332 2.83301 -1.50195 4.2666c-0.31543 0.956055 -0.776367 1.86035 -1.00684 2.85059c-0.563477 2.47461 -0.862305 5.02539 -0.862305 7.62012v34.1328c0 8.21777 3.07227 16.1797 8.5332 22.4004v40.3711
c-13.585 9.30957 -30.7793 14.0283 -51.1992 14.0283c-72.2178 0 -76.6641 -57.7783 -76.8174 -60.2275l0.0166016 -45.9092l-2.80762 -2.53516c-3.63477 -3.29395 -5.72559 -6.94629 -5.72559 -10.0176v-29.4746c0 -4.58203 2.34668 -8.83984 6.27246 -11.3828
l2.91797 -1.87793l0.776367 -3.37891c6.69922 -29.1924 29.3721 -50.6113 29.5938 -50.8164l2.71387 -2.53418v-30.6436c0 -12.9707 -7.06543 -24.8652 -18.4404 -31.0693l-56.7637 -35.6094c-16.7002 -9.12207 -26.8037 -26.1377 -26.8037 -44.6553v-15.334h102.4v19.0977z
M494.934 -25.5996v17.4336c0 22.8438 -12.6895 43.375 -33.1182 53.5889l-81.5186 40.7549c-13.5088 6.75879 -21.8965 20.335 -21.8965 35.4395v35.2002l2.12402 2.42285c2.14258 2.43262 4.6084 5.61523 7.14258 9.20801c10.3428 14.5918 18.4746 30.9932 24.1836 48.751
l1.36523 4.22363l4.25 1.30566c7.25293 2.23535 12.1338 8.75488 12.1338 16.2051v34.1328c0 4.78711 -2.03027 9.25 -5.7168 12.5781l-2.81641 2.54297l0.0771484 54.2637c0.0166016 0.205078 2.76465 24.2344 -13.8496 43.0166
c-14.1572 16.0166 -38.2383 24.1318 -71.5605 24.1318c-33.4424 0 -57.5742 -8.1748 -71.7139 -24.3115c-13.7734 -15.709 -14.1396 -34.5938 -13.8496 -40.7549l0.230469 -0.178711v-3.02148v-53.1455l-2.81641 -2.53418
c-3.68652 -3.33691 -5.71777 -7.7998 -5.71777 -12.5869v-34.1328c0 -5.76855 2.95312 -11.1191 7.90234 -14.3105l2.91016 -1.87793l0.776367 -3.37891c0.648438 -2.83301 1.41602 -5.58887 2.21875 -8.28613c0.0507812 -0.178711 0.110352 -0.349609 0.162109 -0.520508
l0.46875 -1.51855c0.785156 -2.5 1.60449 -4.92383 2.47461 -7.24512c0.478516 -1.28809 0.930664 -2.41504 1.37402 -3.53223c0.170898 -0.426758 0.341797 -0.862305 0.512695 -1.28027c0.477539 -1.15234 0.947266 -2.26953 1.41602 -3.33691v0
c0.145508 -0.332031 0.298828 -0.65625 0.443359 -0.989258v0c1.05859 -2.38086 2.14258 -4.66797 3.22656 -6.84375c0 -0.00878906 0.0078125 -0.0175781 0.0078125 -0.0175781c2.04004 -4.05273 4.08789 -7.71387 6.0166 -10.9482
c0.0683594 -0.119141 0.135742 -0.230469 0.204102 -0.34082c0.905273 -1.51074 1.79199 -2.93555 2.62891 -4.24121c0.0419922 -0.0595703 0.0761719 -0.12793 0.119141 -0.1875c1.77539 -2.76465 3.37109 -5.06055 4.64258 -6.82715
c0.0078125 -0.0166016 0.0166016 -0.0253906 0.0253906 -0.0419922c0.605469 -0.845703 1.13477 -1.55371 1.58691 -2.14258c0.0595703 -0.0683594 0.111328 -0.136719 0.162109 -0.204102c0.862305 -1.12695 1.39062 -1.7666 1.4082 -1.79199l0.324219 -0.384766
l1.65527 -1.97949v-0.00878906v-34.2861c0 -14.499 -7.91016 -27.8359 -20.6504 -34.791l-76.126 -41.5234c-19.2598 -10.4961 -31.2236 -30.6602 -31.2236 -52.5986v-19.0977h358.4z" />
    <glyph glyph-name="007-delete" unicode="&#xf106;" 
d="M353.574 271.474l-8.68945 -237.277l-40.0781 1.46387l8.68945 237.284zM235.948 34.9238v237.285h40.1035v-237.285h-40.1035zM207.186 35.666l-40.0762 -1.46973l-8.69043 237.284l40.0781 1.4707zM17.3789 371.133h477.242v-40.1035h-42.4639l-33.1533 -376.729
c-0.902344 -10.3535 -9.57812 -18.3008 -19.9717 -18.3008h-286.74c-10.3926 0 -19.0635 7.94141 -19.9717 18.2939l-33.1523 376.735h-41.7891v40.1035zM380.665 -23.8965l31.2354 354.926h-312.475l31.2285 -354.926h250.011zM321.504 448
c18.4277 0 33.4199 -14.9922 33.4199 -33.4199v-63.499h-40.1035v56.8154h-117.641v-56.8154h-40.1035v63.499c0 18.4277 14.9922 33.4199 33.4199 33.4199h131.008z" />
    <glyph glyph-name="011-add" unicode="&#xf10a;" 
d="M512 204.19v-24.3809h-243.81v-243.81h-24.3809v243.81h-243.81v24.3809h243.81v243.81h24.3809v-243.81h243.81z" />
  </font>
</defs></svg>
